…
## 3.1 I-Gaps and U-Gaps

Each abstract has two `icount` and `ucount` values, which are often not
the same:

``` r
datasets$by_abstract_coding |>
    filter(min(icount) != max(icount) | min(ucount) != max(ucount), .by = `_citekey`) |>
    select(`_citekey`, `_coder`, icount, ucount) |>
    pivot_wider(id_cols = `_citekey`, names_from = `_coder`, values_from = c(icount, ucount))
```

    ## # A tibble: 215 × 5
    ##    `_citekey`  icount_A icount_B ucount_A ucount_B
    ##    <chr>          <dbl>    <dbl>    <dbl>    <dbl>
    ##  1 AbdBadCos22        1        0        2        0
    ##  2 AbiRahOpe22        3        2        0        0
    ##  3 AhmAshAzg22        1        1        1        0
    ##  4 AhmFanYi22         4        2        0        1
    ##  5 AlDAhmMah22        1        3        0        0
    ##  6 AlkAlaKeb22        2        1        0        1
    ##  7 AlmGay22           4        7        0        0
    ##  8 AlmKorTah22        0        1        0        0
    ##  9 AmnPoe22           1        0        0        0
    ## 10 AndLimMar22        1        0        0        0
    ## # ℹ 205 more rows
…
